......................
----------------------------------------------------------------------
Ran 22 tests in 0.021s

OK
Name             Stmts   Miss Branch BrPart  Cover   Missing
------------------------------------------------------------
Collatz.py          35      0     14      0   100%
TestCollatz.py      95      0      2      0   100%
------------------------------------------------------------
TOTAL              130      0     16      0   100%

